%YAML 1.1
%TAG !u! tag:unity3d.com,2011:
--- !u!114 &-3943220299347354760
MonoBehaviour:
  m_ObjectHideFlags: 3
  m_CorrespondingSourceObject: {fileID: 0}
  m_PrefabInstance: {fileID: 0}
  m_PrefabAsset: {fileID: 0}
  m_GameObject: {fileID: 0}
  m_Enabled: 1
  m_EditorHideFlags: 0
  m_Script: {fileID: 11500000, guid: d65e486e4de6e5448a8fbb43dc8756a0, type: 3}
  m_Name: Grain
  m_EditorClassIdentifier: 
  active: 1
  enabled:
    overrideState: 1
    value: 1
  colored:
    overrideState: 1
    value: 1
  intensity:
    overrideState: 1
    value: 0.2
  size:
    overrideState: 0
    value: 1
  lumContrib:
    overrideState: 0
    value: 0.8
--- !u!114 &-3209277683196766667
MonoBehaviour:
  m_ObjectHideFlags: 3
  m_CorrespondingSourceObject: {fileID: 0}
  m_PrefabInstance: {fileID: 0}
  m_PrefabAsset: {fileID: 0}
  m_GameObject: {fileID: 0}
  m_Enabled: 1
  m_EditorHideFlags: 0
  m_Script: {fileID: 11500000, guid: 40b924e2dad56384a8df2a1e111bb675, type: 3}
  m_Name: Vignette
  m_EditorClassIdentifier: 
  active: 1
  enabled:
    overrideState: 1
    value: 1
  mode:
    overrideState: 1
    value: 0
  color:
    overrideState: 1
    value: {r: 0, g: 0, b: 0, a: 1}
  center:
    overrideState: 0
    value: {x: 0.5, y: 0.5}
  intensity:
    overrideState: 1
    value: 0.4
  smoothness:
    overrideState: 0
    value: 0.2
  roundness:
    overrideState: 0
    value: 1
  rounded:
    overrideState: 1
    value: 0
  mask:
    overrideState: 0
    value: {fileID: 0}
    defaultState: 1
  opacity:
    overrideState: 0
    value: 1
--- !u!114 &11400000
MonoBehaviour:
  m_ObjectHideFlags: 0
  m_CorrespondingSourceObject: {fileID: 0}
  m_PrefabInstance: {fileID: 0}
  m_PrefabAsset: {fileID: 0}
  m_GameObject: {fileID: 0}
  m_Enabled: 1
  m_EditorHideFlags: 0
  m_Script: {fileID: 11500000, guid: 8e6292b2c06870d4495f009f912b9600, type: 3}
  m_Name: AR Camera Profile
  m_EditorClassIdentifier: 
  settings:
  - {fileID: 3631582623583443936}
  - {fileID: 5708077291971660530}
  - {fileID: -3943220299347354760}
  - {fileID: -3209277683196766667}
--- !u!114 &3631582623583443936
MonoBehaviour:
  m_ObjectHideFlags: 3
  m_CorrespondingSourceObject: {fileID: 0}
  m_PrefabInstance: {fileID: 0}
  m_PrefabAsset: {fileID: 0}
  m_GameObject: {fileID: 0}
  m_Enabled: 1
  m_EditorHideFlags: 0
  m_Script: {fileID: 11500000, guid: 48a79b01ea5641d4aa6daa2e23605641, type: 3}
  m_Name: Bloom
  m_EditorClassIdentifier: 
  active: 1
  enabled:
    overrideState: 1
    value: 1
  intensity:
    overrideState: 1
    value: 5
  threshold:
    overrideState: 0
    value: 1
  softKnee:
    overrideState: 0
    value: 0.5
  clamp:
    overrideState: 0
    value: 65472
  diffusion:
    overrideState: 0
    value: 7
  anamorphicRatio:
    overrideState: 0
    value: 0
  color:
    overrideState: 0
    value: {r: 1, g: 1, b: 1, a: 1}
  fastMode:
    overrideState: 0
    value: 0
  dirtTexture:
    overrideState: 0
    value: {fileID: 0}
    defaultState: 1
  dirtIntensity:
    overrideState: 0
    value: 0
--- !u!114 &5708077291971660530
MonoBehaviour:
  m_ObjectHideFlags: 3
  m_CorrespondingSourceObject: {fileID: 0}
  m_PrefabInstance: {fileID: 0}
  m_PrefabAsset: {fileID: 0}
  m_GameObject: {fileID: 0}
  m_Enabled: 1
  m_EditorHideFlags: 0
  m_Script: {fileID: 11500000, guid: 6050e2d5de785ce4d931e4dbdbf2d755, type: 3}
  m_Name: ChromaticAberration
  m_EditorClassIdentifier: 
  active: 1
  enabled:
    overrideState: 1
    value: 1
  spectralLut:
    overrideState: 0
    value: {fileID: 0}
    defaultState: 1
  intensity:
    overrideState: 1
    value: 0.5
  fastMode:
    overrideState: 1
    value: 1
